com\tinygrey\controller\DeptController.class
com\tinygrey\service\DeptService.class
com\tinygrey\DeptProvider_8001.class
com\tinygrey\mapper\DeptMapper.class
com\tinygrey\service\Impl\DeptServiceImpl.class
